info:
  name: List Permissions
  type: http
  seq: 1

http:
  method: GET
  url: "{{baseUrl}}/utilities/permissions"
  headers:
    - name: Authorization
      value: Bearer {{accessToken}}
  auth: inherit

settings:
  encodeUrl: true
  timeout: 0
  followRedirects: true
  maxRedirects: 5

examples:
  - name: example
    request:
      url: "{{baseUrl}}/utilities/permissions"
      method: GET
      headers:
        - name: Authorization
          value: Bearer {{accessToken}}
    response:
      status: 200
      statusText: OK
      headers:
        - name: content-security-policy
          value: "default-src 'self';base-uri 'self';font-src 'self' https: data:;form-action 'self';frame-ancestors 'self';img-src 'self' data:;object-src 'none';script-src 'self';script-src-attr 'none';style-src 'self' https: 'unsafe-inline';upgrade-insecure-requests"
        - name: cross-origin-opener-policy
          value: same-origin
        - name: cross-origin-resource-policy
          value: same-origin
        - name: origin-agent-cluster
          value: ?1
        - name: referrer-policy
          value: no-referrer
        - name: strict-transport-security
          value: max-age=31536000; includeSubDomains
        - name: x-content-type-options
          value: nosniff
        - name: x-dns-prefetch-control
          value: off
        - name: x-download-options
          value: noopen
        - name: x-frame-options
          value: SAMEORIGIN
        - name: x-permitted-cross-domain-policies
          value: none
        - name: x-xss-protection
          value: "0"
        - name: vary
          value: Origin
        - name: access-control-allow-credentials
          value: "true"
        - name: content-type
          value: application/json; charset=utf-8
        - name: content-length
          value: "7684"
        - name: etag
          value: W/"1e04-kn/qrFB+fERUeje7cL3DOZu3WNg"
        - name: date
          value: Thu, 09 Apr 2026 12:50:02 GMT
        - name: connection
          value: keep-alive
        - name: keep-alive
          value: timeout=5
      body:
        type: json
        data: |-
          {
            "success": true,
            "message": "Permissions retrieved successfully",
            "data": [
              {
                "id": 153,
                "name": "Dashboard Platform Mobile",
                "identifier": "platform_mobile",
                "module": "DASHBOARD",
                "subModule": "platform",
                "action": "mobile",
                "description": null,
                "createdAt": "2026-04-09T11:37:32.613Z",
                "updatedAt": "2026-04-09T11:37:32.613Z",
                "createdById": null,
                "updatedById": null,
                "deletedAt": null,
                "deletedById": null
              },
              {
                "id": 152,
                "name": "Dashboard Platform Portal",
                "identifier": "platform_portal",
                "module": "DASHBOARD",
                "subModule": "platform",
                "action": "portal",
                "description": null,
                "createdAt": "2026-04-09T11:37:32.610Z",
                "updatedAt": "2026-04-09T11:37:32.610Z",
                "createdById": null,
                "updatedById": null,
                "deletedAt": null,
                "deletedById": null
              },
              {
                "id": 151,
                "name": "Portal: force checkout and admin attendance override",
                "identifier": "mobile.attendance.admin",
                "module": "SHIPMENT",
                "subModule": "attendance",
                "action": "admin",
                "description": "Allows portal admins to force-checkout open attendance records",
                "createdAt": "2026-04-09T11:37:32.608Z",
                "updatedAt": "2026-04-09T11:37:32.608Z",
                "createdById": null,
                "updatedById": null,
                "deletedAt": null,
                "deletedById": null
              },
              {
                "id": 150,
                "name": "Transaction: full vendor tracking log access",
                "identifier": "transaction.vendor_tracking_log.all",
                "module": "SHIPMENT",
                "subModule": "vendor_tracking_log",
                "action": "all",
                "description": "Allows full access to vendor tracking log APIs",
                "createdAt": "2026-04-09T11:37:32.607Z",
                "updatedAt": "2026-04-09T11:37:32.607Z",
                "createdById": null,
                "updatedById": null,
                "deletedAt": null,
                "deletedById": null
              },
              {
                "id": 149,
                "name": "Transaction: delete vendor tracking log",
                "identifier": "transaction.vendor_tracking_log.delete",
                "module": "SHIPMENT",
                "subModule": "vendor_tracking_log",
                "action": "delete",
                "description": "Allows soft deleting vendor tracking logs",
                "createdAt": "2026-04-09T11:37:32.605Z",
                "updatedAt": "2026-04-09T11:37:32.605Z",
                "createdById": null,
                "updatedById": null,
                "deletedAt": null,
                "deletedById": null
              },
              {
                "id": 148,
                "name": "Transaction: update vendor tracking log",
                "identifier": "transaction.vendor_tracking_log.update",
                "module": "SHIPMENT",
                "subModule": "vendor_tracking_log",
                "action": "update",
                "description": "Allows updating vendor tracking logs",
                "createdAt": "2026-04-09T11:37:32.602Z",
                "updatedAt": "2026-04-09T11:37:32.602Z",
                "createdById": null,
                "updatedById": null,
                "deletedAt": null,
                "deletedById": null
              },
              {
                "id": 147,
                "name": "Transaction: read vendor tracking logs",
                "identifier": "transaction.vendor_tracking_log.read",
                "module": "SHIPMENT",
                "subModule": "vendor_tracking_log",
                "action": "read",
                "description": "Allows viewing vendor tracking logs",
                "createdAt": "2026-04-09T11:37:32.600Z",
                "updatedAt": "2026-04-09T11:37:32.600Z",
                "createdById": null,
                "updatedById": null,
                "deletedAt": null,
                "deletedById": null
              },
              {
                "id": 146,
                "name": "Transaction: create vendor tracking log",
                "identifier": "transaction.vendor_tracking_log.create",
                "module": "SHIPMENT",
                "subModule": "vendor_tracking_log",
                "action": "create",
                "description": "Allows creating vendor tracking log records",
                "createdAt": "2026-04-09T11:37:32.598Z",
                "updatedAt": "2026-04-09T11:37:32.598Z",
                "createdById": null,
                "updatedById": null,
                "deletedAt": null,
                "deletedById": null
              },
              {
                "id": 145,
                "name": "Transaction: full vendor status mapping access",
                "identifier": "transaction.vendor_status_mapping.all",
                "module": "SHIPMENT",
                "subModule": "vendor_status_mapping",
                "action": "all",
                "description": "Allows full access to vendor status mapping APIs",
                "createdAt": "2026-04-09T11:37:32.597Z",
                "updatedAt": "2026-04-09T11:37:32.597Z",
                "createdById": null,
                "updatedById": null,
                "deletedAt": null,
                "deletedById": null
              },
              {
                "id": 144,
                "name": "Transaction: delete vendor status mapping",
                "identifier": "transaction.vendor_status_mapping.delete",
                "module": "SHIPMENT",
                "subModule": "vendor_status_mapping",
                "action": "delete",
                "description": "Allows deleting vendor status mapping rules",
                "createdAt": "2026-04-09T11:37:32.595Z",
                "updatedAt": "2026-04-09T11:37:32.595Z",
                "createdById": null,
                "updatedById": null,
                "deletedAt": null,
                "deletedById": null
              },
              {
                "id": 143,
                "name": "Transaction: update vendor status mapping",
                "identifier": "transaction.vendor_status_mapping.update",
                "module": "SHIPMENT",
                "subModule": "vendor_status_mapping",
                "action": "update",
                "description": "Allows updating vendor status mapping rules",
                "createdAt": "2026-04-09T11:37:32.593Z",
                "updatedAt": "2026-04-09T11:37:32.593Z",
                "createdById": null,
                "updatedById": null,
                "deletedAt": null,
                "deletedById": null
              },
              {
                "id": 142,
                "name": "Transaction: read vendor status mappings",
                "identifier": "transaction.vendor_status_mapping.read",
                "module": "SHIPMENT",
                "subModule": "vendor_status_mapping",
                "action": "read",
                "description": "Allows viewing vendor status mapping rules",
                "createdAt": "2026-04-09T11:37:32.592Z",
                "updatedAt": "2026-04-09T11:37:32.592Z",
                "createdById": null,
                "updatedById": null,
                "deletedAt": null,
                "deletedById": null
              },
              {
                "id": 141,
                "name": "Transaction: create vendor status mapping",
                "identifier": "transaction.vendor_status_mapping.create",
                "module": "SHIPMENT",
                "subModule": "vendor_status_mapping",
                "action": "create",
                "description": "Allows creating vendor external-to-internal status mapping rules",
                "createdAt": "2026-04-09T11:37:32.590Z",
                "updatedAt": "2026-04-09T11:37:32.590Z",
                "createdById": null,
                "updatedById": null,
                "deletedAt": null,
                "deletedById": null
              },
              {
                "id": 140,
                "name": "Tracking Summary All",
                "identifier": "transaction.tracking_summary.all",
                "module": "SHIPMENT",
                "subModule": "tracking_summary",
                "action": "all",
                "description": "Allows full access to shipment tracking summary APIs",
                "createdAt": "2026-04-09T11:37:32.588Z",
                "updatedAt": "2026-04-09T11:37:32.588Z",
                "createdById": null,
                "updatedById": null,
                "deletedAt": null,
                "deletedById": null
              },
              {
                "id": 139,
                "name": "Tracking Summary Delete",
                "identifier": "transaction.tracking_summary.delete",
                "module": "SHIPMENT",
                "subModule": "tracking_summary",
                "action": "delete",
                "description": "Allows deleting shipment tracking summaries",
                "createdAt": "2026-04-09T11:37:32.586Z",
                "updatedAt": "2026-04-09T11:37:32.586Z",
                "createdById": null,
                "updatedById": null,
                "deletedAt": null,
                "deletedById": null
              },
              {
                "id": 138,
                "name": "Tracking Summary Update",
                "identifier": "transaction.tracking_summary.update",
                "module": "SHIPMENT",
                "subModule": "tracking_summary",
                "action": "update",
                "description": "Allows updating shipment tracking summaries",
                "createdAt": "2026-04-09T11:37:32.584Z",
                "updatedAt": "2026-04-09T11:37:32.584Z",
                "createdById": null,
                "updatedById": null,
                "deletedAt": null,
                "deletedById": null
              },
              {
                "id": 137,
                "name": "Tracking Summary Read",
                "identifier": "transaction.tracking_summary.read",
                "module": "SHIPMENT",
                "subModule": "tracking_summary",
                "action": "read",
                "description": "Allows viewing shipment tracking summaries",
                "createdAt": "2026-04-09T11:37:32.582Z",
                "updatedAt": "2026-04-09T11:37:32.582Z",
                "createdById": null,
                "updatedById": null,
                "deletedAt": null,
                "deletedById": null
              },
              {
                "id": 136,
                "name": "Tracking Summary Create",
                "identifier": "transaction.tracking_summary.create",
                "module": "SHIPMENT",
                "subModule": "tracking_summary",
                "action": "create",
                "description": "Allows creating shipment tracking summaries",
                "createdAt": "2026-04-09T11:37:32.579Z",
                "updatedAt": "2026-04-09T11:37:32.579Z",
                "createdById": null,
                "updatedById": null,
                "deletedAt": null,
                "deletedById": null
              },
              {
                "id": 135,
                "name": "User Role All",
                "identifier": "user.role.all",
                "module": "MASTER",
                "subModule": "user_role",
                "action": "all",
                "description": "Allows full access to user role APIs",
                "createdAt": "2026-04-09T11:37:32.578Z",
                "updatedAt": "2026-04-09T11:37:32.578Z",
                "createdById": null,
                "updatedById": null,
                "deletedAt": null,
                "deletedById": null
              },
              {
                "id": 134,
                "name": "User Role Delete",
                "identifier": "user.role.delete",
                "module": "MASTER",
                "subModule": "user_role",
                "action": "delete",
                "description": "Allows deleting user roles",
                "createdAt": "2026-04-09T11:37:32.576Z",
                "updatedAt": "2026-04-09T11:37:32.576Z",
                "createdById": null,
                "updatedById": null,
                "deletedAt": null,
                "deletedById": null
              }
            ],
            "meta": {
              "page": 1,
              "limit": 20,
              "total": 153,
              "totalPages": 8
            }
          }

docs: All permissions (flat list).
